CDC Causes of Death - 3 Results
…
We see that West Virginia has the highest average dispensing rate

Code

df_opiod_state_arranged_top5_states = df_opiod_state_arranged %>% filter(State == "West Virginia" | State == "Alabama" | State == "Tennessee" | State == "Kentucky" | State == "Arkansas" | State == "Mississippi" | State == "Oklahoma" | State == "Louisiana")

df_opiod_state_arranged_top5_states

# A tibble: 120 × 3
   State         OpiodDispenseRatePer100 Year 
   <chr>                           <dbl> <chr>
 1 West Virginia                    147. 2009 
 2 West Virginia                    146. 2008 
 3 Alabama                          144. 2012 
 4 West Virginia                    143. 2010 
 5 Alabama                          142. 2013 
 6 Tennessee                        140  2010 
 7 West Virginia                    140. 2011 
 8 Tennessee                        138. 2011 
 9 Tennessee                        138. 2009 
10 Kentucky                         137  2011 
# ℹ 110 more rows
…
Code

selected_top5 = cdc_dataset %>% filter(Cause == "Unintentional injuries") %>% 
  filter(State == "West Virginia" | State == "New Mexico" | State == "Kentucky" | State == "Mississippi" | State == "Alaska" | State == "Wyoming" | State == "Oklahoma" | State == "Tennessee")  %>% filter(Year > 2005)

selected_top5

# A tibble: 120 × 7
    Year Cause                  State  Deaths Population Crude_Rate Age_Adj_Rate
   <dbl> <chr>                  <chr>   <dbl>      <dbl>      <dbl>        <dbl>
 1  2006 Unintentional injuries Alaska    316     675302       46.8         52.3
 2  2006 Unintentional injuries Kentu…   2446    4219239       58           57.9
 3  2006 Unintentional injuries Missi…   1856    2904978       63.9         64.7
 4  2006 Unintentional injuries New M…   1297    1962137       66.1         67.6
 5  2006 Unintentional injuries Oklah…   2039    3594090       56.7         56.6
 6  2006 Unintentional injuries Tenne…   3307    6088766       54.3         54.3
 7  2006 Unintentional injuries West …   1177    1827912       64.4         62.4
 8  2006 Unintentional injuries Wyomi…    306     522667       58.5         58.9
 9  2007 Unintentional injuries Alaska    354     680300       52           56.3
10  2007 Unintentional injuries Kentu…   2372    4256672       55.7         55.6
# ℹ 110 more rows
…
Code

united_states_by_area_density

# A tibble: 50 × 2
   state        densityMi
   <chr>            <dbl>
 1 Alaska            1.28
 2 Wyoming           6.01
 3 Montana           7.83
 4 North Dakota     11.3 
 5 South Dakota     12.2 
 6 New Mexico       17.4 
 7 Idaho            23.9 
 8 Nebraska         25.7 
 9 Nevada           29.2 
10 Kansas           35.9 
# ℹ 40 more rows

Code

colnames(united_states_by_area_density) <- c('State','densityMi')
united_states_by_area_density

# A tibble: 50 × 2
   State        densityMi
   <chr>            <dbl>
 1 Alaska            1.28
 2 Wyoming           6.01
 3 Montana           7.83
 4 North Dakota     11.3 
 5 South Dakota     12.2 
 6 New Mexico       17.4 
 7 Idaho            23.9 
 8 Nebraska         25.7 
 9 Nevada           29.2 
10 Kansas           35.9 
# ℹ 40 more rows

Code

avg_suicide_rate = cdc_dataset %>% filter(State != "United States") %>% filter(Cause == "Suicide") %>% group_by(State) %>% summarize(Avg = mean(Age_Adj_Rate)) %>% arrange(desc(Avg))
avg_suicide_rate

# A tibble: 51 × 2
   State        Avg
   <chr>      <dbl>
 1 Wyoming     22.6
 2 Alaska      22.6
 3 Montana     22.1
 4 New Mexico  20.6
 5 Nevada      19.4
 6 Idaho       18.5
 7 Utah        18.4
 8 Colorado    18.0
 9 Oklahoma    17.0
10 Arizona     16.9
# ℹ 41 more rows
…
ℹ Use `spec()` to retrieve the full column specification for this data.
ℹ Specify the column types or set `show_col_types = FALSE` to quiet this message.

Code

View(summary_gdp)

summary_gdp_only = summary_gdp %>% filter(Description == "Gross domestic product (GDP)") %>% select(GeoName,`2017`,`2018`,`2019`) %>% filter(GeoName != 'United States')
summary_gdp_only = summary_gdp_only %>% mutate(AvgGDP = (as.numeric(`2017`)+as.numeric(`2018`)+as.numeric(`2019`)) / 3)
summary_gdp_only

# A tibble: 51 × 5
   GeoName              `2017`    `2018`    `2019`      AvgGDP
   <chr>                <chr>     <chr>     <chr>        <dbl>
 1 Alabama              216615.5  226263.8  234526.4   225802.
 2 Alaska               53550.9   54762.0   54469.9     54261.
 3 Arizona              333099.0  353671.0  375545.0   354105 
 4 Arkansas             123882.6  129213.8  132637.2   128578.
 5 California           2740550.3 2899530.9 3062158.9 2900747.
 6 Colorado             350209.1  373923.1  397701.6   373945.
 7 Connecticut          273875.1  280535.4  285466.4   279959.
 8 Delaware             69555.6   73376.0   78685.8     73872.
 9 District of Columbia 134298.8  141240.2  145171.0   140237.
10 Florida              1014866.9 1072085.6 1127988.6 1071647.
# ℹ 41 more rows

Code

colnames(summary_gdp_only) <- c('State','2017','2018','2019','AvgGDP')
summary_gdp_only

# A tibble: 51 × 5
   State                `2017`    `2018`    `2019`      AvgGDP
   <chr>                <chr>     <chr>     <chr>        <dbl>
 1 Alabama              216615.5  226263.8  234526.4   225802.
 2 Alaska               53550.9   54762.0   54469.9     54261.
 3 Arizona              333099.0  353671.0  375545.0   354105 
 4 Arkansas             123882.6  129213.8  132637.2   128578.
 5 California           2740550.3 2899530.9 3062158.9 2900747.
 6 Colorado             350209.1  373923.1  397701.6   373945.
 7 Connecticut          273875.1  280535.4  285466.4   279959.
 8 Delaware             69555.6   73376.0   78685.8     73872.
 9 District of Columbia 134298.8  141240.2  145171.0   140237.
10 Florida              1014866.9 1072085.6 1127988.6 1071647.
# ℹ 41 more rows
…
